<?xml version="1.0" standalone="no"?>
<!DOCTYPE svg PUBLIC "-//W3C//DTD SVG 20010904//EN"
 "http://www.w3.org/TR/2001/REC-SVG-20010904/DTD/svg10.dtd">
<svg version="1.0" xmlns="http://www.w3.org/2000/svg"
 width="700.000000pt" height="700.000000pt" viewBox="0 0 700.000000 700.000000"
 preserveAspectRatio="xMidYMid meet">
<metadata>
Created by potrace 1.11, written by Peter Selinger 2001-2013
</metadata>
<g transform="translate(0.000000,700.000000) scale(0.100000,-0.100000)"
fill="#000000" stroke="none">
<path d="M0 3500 l0 -3500 3500 0 3500 0 0 3500 0 3500 -3500 0 -3500 0 0
-3500z m6180 -5 l0 -2685 -2685 0 -2685 0 0 2685 0 2685 2685 0 2685 0 0
-2685z"/>
<path d="M2187 5373 c-4 -3 -7 -852 -7 -1885 l0 -1878 365 0 365 0 0 699 0
699 558 5 c617 4 618 4 840 78 112 37 145 52 260 121 246 148 421 418 498 768
23 106 23 358 0 465 -71 324 -223 566 -451 716 -201 133 -390 189 -695 209
-164 11 -1723 14 -1733 3z m1796 -708 c171 -44 298 -171 332 -331 30 -142 8
-330 -49 -429 -35 -58 -113 -128 -186 -165 -112 -57 -146 -60 -682 -60 l-488
0 0 500 0 500 508 0 c418 0 518 -3 565 -15z"/>
</g>
</svg>
